…
```
## # A tibble: 32 x 3
## # Groups:   Species [4]
##     Species                                                  Env coverage
##      <fctr>                                               <fctr>    <dbl>
##  1      Fin                                     ETOPO1.Elevation        1
##  2      Fin ECMWF.Interim.Full.Daily.SFC.Sea.Surface.Temperature        1
##  3      Fin                               NASA.Distance.to.Coast        1
##  4      Fin           ECMWF.Interim.Full.Daily.SFC.Sea.Ice.Cover        1
##  5 Humpback                                     ETOPO1.Elevation        1
##  6 Humpback                               NASA.Distance.to.Coast        1
##  7      Sei                                     ETOPO1.Elevation        1
##  8      Sei                               NASA.Distance.to.Coast        1
##  9     Ship                                     ETOPO1.Elevation        1
## 10     Ship                               NASA.Distance.to.Coast        1
## # ... with 22 more rows
```
…
